<?xml version="1.0" ?>
<sdf version="1.4">
  <world name="default">

    <!--physics type='ode'>
     <real_time_factor>1</real_time_factor>
     <max_step_size>0.01</max_step_size>
     <real_time_update_rate>0</real_time_update_rate>
     <gravity>0 0 -9.8</gravity>
    </physics-->

    <physics type='ode'>
     <max_step_size>0.003</max_step_size>
     <real_time_update_rate>0</real_time_update_rate>
    </physics>

    <!-- A global light source -->
    <include>
      <uri>model://sun</uri>
    </include>

    <model name="heightmap">
      <static>true</static>
      <link name="link">

        <collision name="collision">
          <geometry>
            <heightmap>
              <uri>model://heightmaps/slope_rocks2.png</uri>
              <!-- this is the size we want gazebo to render the image in, it does not have to match the image size, fix these values according to the intended resolution you are using. Values are in meters-->
              <size>10 10 1.0</size>
              <pos>0 0 0</pos>
            </heightmap>
          </geometry>
        </collision>

        <visual name="visual_abcedf">
          <geometry>
            <heightmap>
              <use_terrain_paging>false</use_terrain_paging>
              <texture>
                <diffuse>file://media/materials/textures/dirt_diffusespecular.png</diffuse>
                <normal>file://media/materials/textures/flat_normal.png</normal>
                <size>1</size>
              </texture>
              <!--texture>
                <diffuse>file://media/materials/textures/grass_diffusespecular.png</diffuse>
                <normal>file://media/materials/textures/flat_normal.png</normal>
                <size>1</size>
              </texture>
              <texture>
                <diffuse>file://media/materials/textures/fungus_diffusespecular.png</diffuse>
                <normal>file://media/materials/textures/flat_normal.png</normal>
                <size>1</size>
              </texture>
              <blend>
                <min_height>2</min_height>
                <fade_dist>2</fade_dist>
              </blend>
              <blend>
                <min_height>4</min_height>
                <fade_dist>2</fade_dist>
              </blend-->
              <uri>model://heightmaps/slope_rocks2.png</uri>
              <size>10 10 1.0</size>
              <pos>0 0 0</pos>
            </heightmap>
          </geometry>
          <material script='Gazebo/White'>
            <emissive rgba='1.0 1.0 1.0 1.0'/>
          </material>
        </visual>
      </link>
    </model>

  </world>
</sdf>
